Exercise-10
…
I am first going to extract only the mentioned variables, which are : Species1, Family1, Order1, Beak.Length_Culmen, Beak.Width, Beak.Depth, Tarsus.Length, Wing.Length, Tail.Length, Mass, Habitat, Migration, Trophic.Level, Trophic.Niche, Min.Latitude, Max.Latitude, Centroid.Latitude, Primary.Lifestyle, and Range.Size

d <- d %>%
  select(
    Species1, Family1, Order1,
    Beak.Length_Culmen, Beak.Width, Beak.Depth,
    Tarsus.Length, Wing.Length, Tail.Length, Mass,
    Habitat, Migration, Trophic.Level, Trophic.Niche,
    Min.Latitude, Max.Latitude, Centroid.Latitude,
    Primary.Lifestyle, Range.Size
  )
d

# A tibble: 11,009 × 19
   Species1              Family1 Order1 Beak.Length_Culmen Beak.Width Beak.Depth
   <chr>                 <chr>   <chr>               <dbl>      <dbl>      <dbl>
 1 Accipiter albogularis Accipi… Accip…               27.7       10.6       14.7
 2 Accipiter badius      Accipi… Accip…               20.6        8.8       11.6
 3 Accipiter bicolor     Accipi… Accip…               25          8.6       12.7
 4 Accipiter brachyurus  Accipi… Accip…               22.5        8.9       11.9
 5 Accipiter brevipes    Accipi… Accip…               21.1        8.7       11.1
 6 Accipiter butleri     Accipi… Accip…               20          6.6       12  
 7 Accipiter castanilius Accipi… Accip…               20.5        8.3       10.9
 8 Accipiter cirrocepha… Accipi… Accip…               19.2        7.7        9.6
 9 Accipiter collaris    Accipi… Accip…               20          8.6       11  
10 Accipiter cooperii    Accipi… Accip…               25.4        8.6       13.2
# ℹ 10,999 more rows
# ℹ 13 more variables: Tarsus.Length <dbl>, Wing.Length <dbl>,
#   Tail.Length <dbl>, Mass <dbl>, Habitat <chr>, Migration <dbl>,
#   Trophic.Level <chr>, Trophic.Niche <chr>, Min.Latitude <dbl>,
#   Max.Latitude <dbl>, Centroid.Latitude <dbl>, Primary.Lifestyle <chr>,
#   Range.Size <dbl>
…
